<?xml version="1.0" encoding="utf-8"?>
<!-- Generator: Adobe Illustrator 16.0.0, SVG Export Plug-In . SVG Version: 6.00 Build 0)  -->
<!DOCTYPE svg PUBLIC "-//W3C//DTD SVG 1.1//EN" "http://www.w3.org/Graphics/SVG/1.1/DTD/svg11.dtd">
<svg version="1.1" id="Capa_1" xmlns="http://www.w3.org/2000/svg" xmlns:xlink="http://www.w3.org/1999/xlink" x="0px" y="0px"
	 width="595.279px" height="841.891px" viewBox="0 0 595.279 841.891" enable-background="new 0 0 595.279 841.891"
	 xml:space="preserve">
<g>
	<path fill="#2F2886" d="M390.211,123.305c-113.075,0-205.069,91.993-205.069,205.069c0,46.527,15.585,89.476,41.795,123.924
		l-41.543,41.542c-0.264,0.264-0.504,0.541-0.731,0.826c-3.4-0.708-6.896-1.079-10.449-1.079c-13.563,0-26.317,5.282-35.913,14.878
		L14.874,631.891C5.281,641.48,0,654.233,0,667.799s5.281,26.319,14.873,35.907c9.595,9.595,22.349,14.878,35.913,14.878
		s26.318-5.283,35.913-14.878L210.126,580.28c9.592-9.589,14.874-22.342,14.874-35.909c0-3.555-0.372-7.051-1.08-10.451
		c0.285-0.226,0.562-0.467,0.825-0.73l41.541-41.541c34.449,26.211,77.397,41.795,123.925,41.795
		c113.074,0,205.068-91.993,205.068-205.069S503.285,123.305,390.211,123.305z M73.061,690.069
		c-5.951,5.952-13.86,9.229-22.274,9.229c-8.413,0-16.323-3.277-22.276-9.23c-5.948-5.946-9.225-13.854-9.225-22.27
		s3.276-16.323,9.227-22.271L139.98,534.061l44.545,44.545L73.061,690.069z M198.094,564.901l-44.393-44.393
		c5.882-5.061,13.188-7.619,20.512-7.619c8.067,0,16.136,3.072,22.276,9.214c5.949,5.946,9.225,13.854,9.225,22.27
		C205.714,551.992,203.02,559.191,198.094,564.901z M215.651,515.013c-1.644-2.31-3.479-4.504-5.523-6.547
		c-2.047-2.046-4.244-3.883-6.555-5.527l35.795-35.795c3.857,4.19,7.887,8.22,12.077,12.076L215.651,515.013z M390.211,514.157
		c-102.442,0-185.783-83.341-185.783-185.783c0-102.442,83.341-185.784,185.783-185.784c102.441,0,185.783,83.342,185.783,185.784
		C575.994,430.816,492.653,514.157,390.211,514.157z"/>
	<path fill="#2F2886" d="M390.211,164.447c-90.39,0-163.927,73.537-163.927,163.927s73.537,163.927,163.927,163.927
		s163.927-73.537,163.927-163.927S480.601,164.447,390.211,164.447z M390.211,473.016c-79.755,0-144.642-64.886-144.642-144.642
		s64.887-144.641,144.642-144.641c79.754,0,144.641,64.885,144.641,144.641S469.965,473.016,390.211,473.016z"/>
	<path fill="#2F2886" d="M457.169,225.438c-4.462-2.908-10.436-1.649-13.344,2.813c-2.908,4.461-1.647,10.436,2.813,13.343
		c29.474,19.208,47.069,51.649,47.069,86.779c0,24-8.4,47.391-23.655,65.861c-3.392,4.105-2.812,10.184,1.295,13.575
		c1.797,1.485,3.973,2.208,6.135,2.208c2.777,0,5.534-1.194,7.44-3.502c18.102-21.917,28.071-49.669,28.071-78.141
		C512.995,286.701,492.126,248.221,457.169,225.438z"/>
	<path fill="#2F2886" d="M412.525,207.615c-7.313-1.344-14.82-2.025-22.313-2.025c-5.327,0-9.643,4.317-9.643,9.643
		s4.315,9.643,9.643,9.643c6.328,0,12.662,0.575,18.829,1.708c0.59,0.108,1.175,0.161,1.753,0.161c4.563,0,8.618-3.254,9.474-7.902
		C421.229,213.604,417.762,208.578,412.525,207.615z"/>
</g>
</svg>
